…
This produces a dataframe in which the the number of rows in this
dataset is the number of unique stations:

``` r
# My method
distinct_stations_df = distinct(subway_df, station_name, line, .keep_all = TRUE)
nrow(distinct_stations_df)
## [1] 465

# Jeff's method
trans_ent %>% 
  select(station_name, line) %>% 
  distinct
## # A tibble: 465 × 2
##    station_name             line    
##    <chr>                    <chr>   
##  1 25th St                  4 Avenue
##  2 36th St                  4 Avenue
##  3 45th St                  4 Avenue
##  4 53rd St                  4 Avenue
##  5 59th St                  4 Avenue
##  6 77th St                  4 Avenue
##  7 86th St                  4 Avenue
##  8 95th St                  4 Avenue
##  9 9th St                   4 Avenue
## 10 Atlantic Av-Barclays Ctr 4 Avenue
## # … with 455 more rows
```
…
This produces a dataframe in which the number of rows is the number of
ADA compliant stations:

``` r
# My method
sum(distinct_stations_df$ada == "TRUE")
## [1] 84

# Jeff's method
trans_ent %>% 
  filter(ada == TRUE) %>% 
  select(station_name, line) %>% 
  distinct
## # A tibble: 84 × 2
##    station_name                   line           
##    <chr>                          <chr>          
##  1 Atlantic Av-Barclays Ctr       4 Avenue       
##  2 DeKalb Av                      4 Avenue       
##  3 Pacific St                     4 Avenue       
##  4 Grand Central                  42nd St Shuttle
##  5 34th St                        6 Avenue       
##  6 47-50th Sts Rockefeller Center 6 Avenue       
##  7 Church Av                      6 Avenue       
##  8 21st St                        63rd Street    
##  9 Lexington Av                   63rd Street    
## 10 Roosevelt Island               63rd Street    
## # … with 74 more rows
```
…
distinct_stations_long_df = distinct(subway_long_df, station_name, line, .keep_all = TRUE)

sum(distinct_stations_long_df$route_name == "A")
## [1] 60

# Jeff's method: 
trans_ent %>% 
  pivot_longer(
    route1:route11,
    names_to = "route_num",
    values_to = "route") %>% 
  filter(route == "A") %>% 
  select(station_name, line) %>% 
  distinct
## # A tibble: 60 × 2
##    station_name                  line           
##    <chr>                         <chr>          
##  1 Times Square                  42nd St Shuttle
##  2 125th St                      8 Avenue       
##  3 145th St                      8 Avenue       
##  4 14th St                       8 Avenue       
##  5 168th St - Washington Heights 8 Avenue       
##  6 175th St                      8 Avenue       
##  7 181st St                      8 Avenue       
##  8 190th St                      8 Avenue       
##  9 34th St                       8 Avenue       
## 10 42nd St                       8 Avenue       
## # … with 50 more rows
```
…
``` r
professortrashwheel_df =
  read_excel("data/Trash Wheel Collection Data.xlsx", sheet = "Professor Trash Wheel", range = "A2:M96") %>%
  janitor::clean_names() %>%
  mutate(dataset = "prof")
```

``` r
trashwheel_df = full_join(mrtrashwheel_df, professortrashwheel_df)

trashwheel_df
## # A tibble: 641 × 15
##    dumpster month  year date                weight_tons volume…¹ plast…² polys…³
##       <dbl> <chr> <dbl> <dttm>                    <dbl>    <dbl>   <dbl>   <dbl>
##  1        1 May    2014 2014-05-16 00:00:00        4.31       18    1450    1820
##  2        2 May    2014 2014-05-16 00:00:00        2.74       13    1120    1030
##  3        3 May    2014 2014-05-16 00:00:00        3.45       15    2450    3100
##  4        4 May    2014 2014-05-17 00:00:00        3.1        15    2380    2730
##  5        5 May    2014 2014-05-17 00:00:00        4.06       18     980     870
##  6        6 May    2014 2014-05-20 00:00:00        2.71       13    1430    2140
##  7        7 May    2014 2014-05-21 00:00:00        1.91        8     910    1090
##  8        8 May    2014 2014-05-28 00:00:00        3.7        16    3580    4310
##  9        9 June   2014 2014-06-05 00:00:00        2.52       14    2400    2790
## 10       10 June   2014 2014-06-11 00:00:00        3.76       18    1340    1730
## # … with 631 more rows, 7 more variables: cigarette_butts <dbl>,
## #   glass_bottles <dbl>, grocery_bags <dbl>, chip_bags <dbl>,
## #   sports_balls <int>, homes_powered <dbl>, dataset <chr>, and abbreviated
## #   variable names ¹​volume_cubic_yards, ²​plastic_bottles, ³​polystyrene
```
…
Below, the three datasets are merged into a single dataframe.
`merged_df`. `snp_df` is merged into `pols_month_df`, and
`unemployment_df` is merged into the result using `left_join()`:

``` r
merged_df = 
  left_join(pols_month_df, snp_df) %>%
  left_join(., unemployment_df)

merged_df
## # A tibble: 822 × 11
##     year month     gov_gop sen_gop rep_gop gov_dem sen_dem rep_dem presi…¹ close
##    <dbl> <chr>       <dbl>   <dbl>   <dbl>   <dbl>   <dbl>   <dbl> <chr>   <dbl>
##  1  1947 January        23      51     253      23      45     198 dem        NA
##  2  1947 February       23      51     253      23      45     198 dem        NA
##  3  1947 March          23      51     253      23      45     198 dem        NA
##  4  1947 April          23      51     253      23      45     198 dem        NA
##  5  1947 May            23      51     253      23      45     198 dem        NA
##  6  1947 June           23      51     253      23      45     198 dem        NA
##  7  1947 July           23      51     253      23      45     198 dem        NA
##  8  1947 August         23      51     253      23      45     198 dem        NA
##  9  1947 September      23      51     253      23      45     198 dem        NA
## 10  1947 October        23      51     253      23      45     198 dem        NA
## # … with 812 more rows, 1 more variable: unemployment <dbl>, and abbreviated
## #   variable name ¹​president
```
…
